Name               Stmts   Miss Branch BrPart  Cover   Missing
--------------------------------------------------------------
Diplomacy.py         135      0     74      1    99%   146->140
TestDiplomacy.py      43      0      0      0   100%
--------------------------------------------------------------
TOTAL                178      0     74      1    99%
